BC2 vignette • BC2
…
ARI data from MEPARI trial

Meditation or Exercise for Preventing Acute Respiratory Infection (MEPARI-2) is a comprehensive trial conducted at University of Wisconsin, School of Medicine and Public Health to investigate the effect of meditation and exercise on severity and duration of Acute Respiratory Infection (ARI).

Direct links for information and data-sets of this trial are:

Full data

Direct link to the ARI .csv file

This data-set is also available in BC2 and it can be accessed after loading the package:

ARI
#> # A tibble: 715 x 48
#>    mepari cohort_new cohort participant_id trt_mepari2 trt_group    baseline_dt
#>     <dbl>      <dbl>  <dbl>          <dbl>       <dbl> <chr>              <dbl>
#>  1      1         11      1            101           2 2.Meditation       40049
#>  2      1         11      1            102           3 3.Exercise         40049
#>  3      1         11      1            103           1 1.Control          40049
#>  4      1         11      1            103           1 1.Control          40049
#>  5      1         11      1            104           1 1.Control          40049
#>  6      1         11      1            106           2 2.Meditation       40049
#>  7      1         11      1            107           2 2.Meditation       40049
#>  8      1         11      1            108           1 1.Control          40049
#>  9      1         11      1            108           1 1.Control          40049
#> 10      1         11      1            109           3 3.Exercise         40049
#> # ... with 705 more rows, and 41 more variables: exit_dt <dbl>,
#> #   last_data_dt <dbl>, dropped_out <dbl>, onstudy_days <dbl>, ari_num <dbl>,
#> #   ari_auc <dbl>, ari_duration <dbl>, ari_il8 <dbl>, ari_neutrophils <dbl>,
#> #   ari_virus <chr>, ari_viral_wash <chr>, ari_viral_swab <chr>,
#> #   ari_health_care_visits <dbl>, ari_missed_work_days <dbl>,
#> #   ari_missed_work_ndays <dbl>, ari_missed_work_nhrs <dbl>,
#> #   ari_medprov_nvisits <dbl>, num_classes_taken <dbl>, b_age <dbl>, sex <dbl>,
#> #   b_current_smoker <dbl>, ethnicity <dbl>, b_education <dbl>, b_income <dbl>,
#> #   b_bmi <dbl>, num_ari <dbl>, b_ipaq_score <dbl>, b_maas_score <dbl>,
…
which are duration of ARI and Severity of ARI respectively.

Note: Responses for participants that did not report any symptoms of ARI were left empty as missing values which we will change them to zero values to make the data suitable for BC2 modeling.

(data <- ARI %>% select(b_age,sex,b_bmi,trt_group,b_maas_score,
                        
                        b_sf12_physical,ari_duration14,ari_auc21_14days) %>%
   
   mutate_at(c('sex','trt_group'),as.factor) %>% 
   
   mutate_at(c('ari_duration14','ari_auc21_14days'),function(x){x[is.na(x)] <- 0 ; return(x)}) %>% 
   
   rename_all(~str_remove(.,'b_')))
#> # A tibble: 715 x 8
#>      age sex     bmi trt_group    maas_score sf12_physical ari_duration14
#>    <dbl> <fct> <dbl> <fct>             <dbl>         <dbl>          <dbl>
#>  1    67 2      45.2 2.Meditation        5.6          57.5          14   
#>  2    51 2      32.4 3.Exercise          5.3          60.2           0   
#>  3    55 1      27.1 1.Control           5.7          40.5           2.38
#>  4    55 1      27.1 1.Control           5.7          40.5           5.6 
#>  5    65 2      25.7 1.Control           4.7          52.9           0   
#>  6    70 2      30.2 2.Meditation        4.3          37.1           0   
#>  7    57 2      29.9 2.Meditation        4.1          50.9           3.56
#>  8    57 2      30   1.Control           4.7          56.7          12.0 
#>  9    57 2      30   1.Control           4.7          56.7          14   
#> 10    52 2      32.8 3.Exercise          3.2          31.8           0   
#> # ... with 705 more rows, and 1 more variable: ari_auc21_14days <dbl>
…
Structured data: Divided structured data including X: full predictors matrix, X1 & X2: predictors matrix of the non-zero parts, vectors containing non-zero responses.

Optimization info: A tibble containing full information of optimization on combinations that were given in the search.space argument.

Best combination: Best converged combination among candidate in search.space. If convergence wasn’t achieved in any combinations, a warning message will be returned for furthur assessments or expansion of search.space.

We’ve saved our model in ARI.fit so let’s take a look at it’s components:

Note: Components related to predictors and responses in Structured data are matrices or vectors so for simplicity we will show their first 10 values here.

options(width = 300)

ARI.fit[-which(names(ARI.fit)=='Final tables')] %>% map_at('Structured data',~map(.,head))
#> $Data
#> # A tibble: 715 x 8
#>    ari_duration14 ari_auc21_14days   age sex     bmi trt_group    maas_score sf12_physical
#>             <dbl>            <dbl> <dbl> <fct> <dbl> <fct>             <dbl>         <dbl>
#>  1          14               636.     67 2      45.2 2.Meditation        5.6          57.5
#>  2           0                 0      51 2      32.4 3.Exercise          5.3          60.2
#>  3           2.38             63.5    55 1      27.1 1.Control           5.7          40.5
#>  4           5.6             154      55 1      27.1 1.Control           5.7          40.5
#>  5           0                 0      65 2      25.7 1.Control           4.7          52.9
#>  6           0                 0      70 2      30.2 2.Meditation        4.3          37.1
#>  7           3.56            102.     57 2      29.9 2.Meditation        4.1          50.9
#>  8          12.0             337      57 2      30   1.Control           4.7          56.7
#>  9          14               286      57 2      30   1.Control           4.7          56.7
#> 10           0                 0      52 2      32.8 3.Exercise          3.2          31.8
#> # ... with 705 more rows
…
#> 3  55    0 27.1                     0                   0
#> 4  55    0 27.1                     0                   0
#> 7  57    1 29.9                     1                   0
#> 8  57    1 30.0                     0                   0
#> 9  57    1 30.0                     0                   0
#> 
#> $`Structured data`$ari_duration14
#> [1] 2.6390573 0.8671005 1.7227666 1.2697605 2.4882344 2.6390573
#> 
#> $`Structured data`$ari_auc21_14days
#> [1] 6.455984 4.151040 5.036953 4.620059 5.820083 5.655992
#> 
#> 
#> $`Optimization info`
#> # A tibble: 48 x 7
#>    coeffs sigmas    ro method      iters    value convergence
#>     <dbl>  <dbl> <dbl> <chr>       <dbl>    <dbl>       <int>
#>  1     -1    0.1  -0.5 Nelder-Mead   100 9296241.           1
#>  2      0    0.1  -0.5 Nelder-Mead   100  125260.           1
#>  3      1    0.1  -0.5 Nelder-Mead   100 6786342.           1
#>  4     -1    1    -0.5 Nelder-Mead   100  917108.           1
#>  5      0    1    -0.5 Nelder-Mead   100    5125.           1
#>  6      1    1    -0.5 Nelder-Mead   100  701745.           1
#>  7     -1    0.1   0.5 Nelder-Mead   100 4230865.           1
#>  8      0    0.1   0.5 Nelder-Mead   100  118353.           1
#>  9      1    0.1   0.5 Nelder-Mead   100 1873470.           1
#> 10     -1    1     0.5 Nelder-Mead   100  421654.           1
#> # ... with 38 more rows
…
#ARI.fit$`Final tables` #Which is the default output method of the fit that was given above!

BC2 model evaluation tools

In BC2 package, typical evaluation methods were implemented for class bc2:

Fitted values:

fitted(ARI.fit)
#> # A tibble: 458 x 2
#>    ari_duration14 ari_auc21_14days
#>             <dbl>            <dbl>
#>  1           1.97             5.05
#>  2           1.94             5.06
#>  3           1.94             5.06
#>  4           1.94             5.05
#>  5           1.92             5.06
#>  6           1.92             5.06
#>  7           1.92             5.06
#>  8           1.92             5.06
#>  9           1.96             5.05
#> 10           1.94             5.05
#> # ... with 448 more rows
…
As we can see, predict outputs a tibble containing predictions along with their requested intervals (prediction or confidence intervals based on requested alpha level) for each response.

Residuals:

residuals(ARI.fit) # or resid(ARI.fit)
#> # A tibble: 458 x 2
#>    ari_duration14 ari_auc21_14days
#>             <dbl>            <dbl>
#>  1          0.673           1.41  
#>  2         -1.07           -0.910 
#>  3         -0.214          -0.0237
#>  4         -0.673          -0.432 
#>  5          0.571           0.756 
#>  6          0.722           0.592 
#>  7          0.719           0.985 
#>  8         -0.103           0.822 
#>  9          0.678          -0.193 
#> 10          0.545           0.315 
#> # ... with 448 more rows
…
